
strategic_region={
	id=14
	name="STRATEGICREGION_14"
	provinces={
		426 449 481 484 487 498 500 509 518 520 533 544 579 585 618 717 719 735 742 745 750 757 759 765 775 3413 3417 3431 3435 3439 3443 3461 3464 3475 3478 3487 3489 3503 3505 3517 3518 3519 3529 3539 3540 3555 3582 3587 3597 3698 3717 3720 3726 3734 3746 3752 3760 3765 3774 3777 3779 6417 6445 6454 6463 6468 6479 6486 6490 6503 6506 6516 6527 6528 6541 6544 6563 6566 6575 6602 6620 6721 6736 6738 6741 6755 6758 6760 6765 6768 6781 6783 6791 6794 6796 9415 9417 9426 9430 9436 9440 9442 9455 9459 9464 9474 9475 9488 9502 9504 9516 9530 9540 9565 9581 9592 9594 9663 9694 9696 9709 9720 9735 9739 9744 9753 11395 11400 11403 11416 11418 11423 11429 11434 11447 11450 11451 11459 11474 11476 11484 11485 11501 11512 11527 11555 11559 11566 11579 11668 11681 11706 11724 11729 11736 
	}
	weather={
		period={
			between={ 0.0 30.0 }
			temperature={ -10.0 0.0 }
			temperature_day_night={ -5.0 5.0 }
			no_phenomenon=0.700
			rain_light=0.000
			rain_heavy=0.000
			snow=0.200
			blizzard=0.000
			mud=1.000
			sandstorm=0.000
			min_snow_level=0.000
		}
		period={
			between={ 0.1 27.1 }
			temperature={ -5.0 1.0 }
			temperature_day_night={ -5.0 5.0 }
			no_phenomenon=0.700
			rain_light=0.000
			rain_heavy=0.000
			snow=0.050
			blizzard=0.000
			mud=1.000
			sandstorm=0.000
			min_snow_level=0.000
		}
		period={
			between={ 0.2 30.2 }
			temperature={ 6.0 15.0 }
			temperature_day_night={ -5.0 5.0 }
			no_phenomenon=0.700
			rain_light=0.250
			rain_heavy=0.100
			snow=0.000
			blizzard=0.000
			mud=1.000
			sandstorm=0.000
			min_snow_level=0.000
		}
		period={
			between={ 0.3 29.3 }
			temperature={ 6.0 15.0 }
			temperature_day_night={ -5.0 5.0 }
			no_phenomenon=0.700
			rain_light=0.250
			rain_heavy=0.100
			snow=0.000
			blizzard=0.000
			mud=1.000
			sandstorm=0.000
			min_snow_level=0.000
		}
		period={
			between={ 0.4 30.4 }
			temperature={ 10.0 20.0 }
			temperature_day_night={ -5.0 5.0 }
			no_phenomenon=0.600
			rain_light=0.250
			rain_heavy=0.100
			snow=0.000
			blizzard=0.000
			mud=1.000
			sandstorm=0.000
			min_snow_level=0.000
		}
		period={
			between={ 0.5 29.5 }
			temperature={ 25.0 35.0 }
			temperature_day_night={ -5.0 5.0 }
			no_phenomenon=0.500
			rain_light=0.300
			rain_heavy=0.200
			snow=0.000
			blizzard=0.000
			mud=1.000
			sandstorm=0.000
			min_snow_level=0.000
		}
		period={
			between={ 0.6 30.6 }
			temperature={ 25.0 35.0 }
			temperature_day_night={ -5.0 5.0 }
			no_phenomenon=0.500
			rain_light=0.300
			rain_heavy=0.100
			snow=0.000
			blizzard=0.000
			mud=1.000
			sandstorm=0.000
			min_snow_level=0.000
		}
		period={
			between={ 0.7 30.7 }
			temperature={ 25.0 35.0 }
			temperature_day_night={ -5.0 5.0 }
			no_phenomenon=0.500
			rain_light=0.200
			rain_heavy=0.050
			snow=0.000
			blizzard=0.000
			mud=1.000
			sandstorm=0.000
			min_snow_level=0.000
		}
		period={
			between={ 0.8 29.8 }
			temperature={ 12.0 22.0 }
			temperature_day_night={ -5.0 5.0 }
			no_phenomenon=0.500
			rain_light=0.200
			rain_heavy=0.050
			snow=0.000
			blizzard=0.000
			mud=1.000
			sandstorm=0.000
			min_snow_level=0.000
		}
		period={
			between={ 0.9 30.9 }
			temperature={ 12.0 22.0 }
			temperature_day_night={ -5.0 5.0 }
			no_phenomenon=0.500
			rain_light=0.100
			rain_heavy=0.050
			snow=0.000
			blizzard=0.000
			mud=1.000
			sandstorm=0.000
			min_snow_level=0.000
		}
		period={
			between={ 0.10 29.10 }
			temperature={ 10.0 15.0 }
			temperature_day_night={ -5.0 5.0 }
			no_phenomenon=0.600
			rain_light=0.100
			rain_heavy=0.050
			snow=0.000
			blizzard=0.000
			mud=1.000
			sandstorm=0.000
			min_snow_level=0.000
		}
		period={
			between={ 0.11 30.11 }
			temperature={ -5.0 0.0 }
			temperature_day_night={ -5.0 5.0 }
			no_phenomenon=0.700
			rain_light=0.100
			rain_heavy=0.050
			snow=0.200
			blizzard=0.000
			mud=1.000
			sandstorm=0.000
			min_snow_level=0.000
		}
	}
}
