
strategic_region={
	id=153
	name="STRATEGICREGION_153"
	provinces={
		1061 1103 1144 1190 1199 1377 1541 1569 1656 1908 1949 1983 2002 2005 2032 2036 2054 2086 2092 2105 4045 4064 4090 4106 4132 4149 4187 4299 4410 4459 4516 4544 4571 4915 4950 4953 4971 4984 5002 5040 5055 5086 5096 7020 7064 7080 7150 7165 7205 7207 7334 7475 7537 7905 7938 7998 8076 8082 8114 9951 9973 9975 10118 10332 10361 10729 10751 10772 10794 10801 10807 10816 10847 10866 10872 10878 11952 11955 11993 11995 12037 12041 12080 12092 12137 12718 12743 12777 12786 12799 12822 12829 12844 12854 12868 12876 12886 14200 14201 14202 14204 14206 14207 14208 14214 14217 14218 14220 14221 14222 14223 14224 14225 14226 14230 14231 14232 14235 14236 14237 14239 14240 14242 14245 14246 14247 14249 14252 14253 14255 14256 14257 14258 14259 14261 
	}
	weather={
		period={
			between={ 0.0 30.0 }
			temperature={ 4.0 6.0 }
			temperature_day_night={ 10.0 -10.0 }
			no_phenomenon=0.800
			rain_light=0.100
			rain_heavy=0.500
			snow=0.050
			blizzard=0.000
			mud=1.000
			sandstorm=0.000
			min_snow_level=0.000
		}
		period={
			between={ 0.1 27.1 }
			temperature={ 5.0 9.0 }
			temperature_day_night={ 12.0 -12.0 }
			no_phenomenon=0.800
			rain_light=0.100
			rain_heavy=0.500
			snow=0.050
			blizzard=0.000
			mud=1.000
			sandstorm=0.000
			min_snow_level=0.000
		}
		period={
			between={ 0.2 30.2 }
			temperature={ 7.0 10.0 }
			temperature_day_night={ 12.0 -12.0 }
			no_phenomenon=0.850
			rain_light=0.100
			rain_heavy=0.500
			snow=0.000
			blizzard=0.000
			mud=1.000
			sandstorm=0.000
			min_snow_level=0.000
		}
		period={
			between={ 0.3 29.3 }
			temperature={ 15.0 18.0 }
			temperature_day_night={ 12.0 -12.0 }
			no_phenomenon=0.850
			rain_light=0.100
			rain_heavy=0.500
			snow=0.000
			blizzard=0.000
			mud=1.000
			sandstorm=0.000
			min_snow_level=0.000
		}
		period={
			between={ 0.4 30.4 }
			temperature={ 21.0 24.0 }
			temperature_day_night={ 12.0 -12.0 }
			no_phenomenon=0.900
			rain_light=0.100
			rain_heavy=0.500
			snow=0.000
			blizzard=0.000
			mud=1.000
			sandstorm=0.000
			min_snow_level=0.000
		}
		period={
			between={ 0.5 29.5 }
			temperature={ 25.0 28.0 }
			temperature_day_night={ 15.0 -15.0 }
			no_phenomenon=1.000
			rain_light=0.000
			rain_heavy=0.000
			snow=0.000
			blizzard=0.000
			mud=1.000
			sandstorm=0.000
			min_snow_level=0.000
		}
		period={
			between={ 0.6 30.6 }
			temperature={ 27.0 30.0 }
			temperature_day_night={ 15.0 -15.0 }
			no_phenomenon=1.000
			rain_light=0.000
			rain_heavy=0.000
			snow=0.000
			blizzard=0.000
			mud=1.000
			sandstorm=0.000
			min_snow_level=0.000
		}
		period={
			between={ 0.7 30.7 }
			temperature={ 23.0 27.0 }
			temperature_day_night={ 15.0 -15.0 }
			no_phenomenon=0.950
			rain_light=0.000
			rain_heavy=0.050
			snow=0.000
			blizzard=0.000
			mud=1.000
			sandstorm=0.000
			min_snow_level=0.000
		}
		period={
			between={ 0.8 29.8 }
			temperature={ 20.0 23.0 }
			temperature_day_night={ 17.0 -17.0 }
			no_phenomenon=0.920
			rain_light=0.030
			rain_heavy=0.050
			snow=0.000
			blizzard=0.000
			mud=1.000
			sandstorm=0.000
			min_snow_level=0.000
		}
		period={
			between={ 0.9 30.9 }
			temperature={ 18.0 21.0 }
			temperature_day_night={ 17.0 -17.0 }
			no_phenomenon=0.920
			rain_light=0.030
			rain_heavy=0.050
			snow=0.000
			blizzard=0.000
			mud=1.000
			sandstorm=0.000
			min_snow_level=0.000
		}
		period={
			between={ 0.10 29.10 }
			temperature={ 14.0 16.0 }
			temperature_day_night={ 16.0 -16.0 }
			no_phenomenon=0.880
			rain_light=0.070
			rain_heavy=0.050
			snow=0.000
			blizzard=0.000
			mud=1.000
			sandstorm=0.000
			min_snow_level=0.000
		}
		period={
			between={ 0.11 30.11 }
			temperature={ 5.0 7.0 }
			temperature_day_night={ 16.0 -16.0 }
			no_phenomenon=0.800
			rain_light=0.050
			rain_heavy=0.100
			snow=0.050
			blizzard=0.000
			mud=1.000
			sandstorm=0.000
			min_snow_level=0.000
		}
	}
}
