
state={
	id=167
	name="STATE_167"

	history={
		owner = IRQ
		victory_points = {
			3795 5 
		}
		buildings = {
			infrastructure = 3

		}
		add_core_of = IRQ
		add_core_of = ISI

	}

	provinces={
		1600 3795 
	}
	manpower=1831418
	buildings_max_level_factor=1.000
	state_category=state_03
}
