
state={
	id=185
	name="STATE_185"

	history={
		owner = SYR
		victory_points = {
			4486 3 
		}
		buildings = {
			infrastructure = 2

		}
		add_core_of = SYR
		add_core_of = FSA

	}

	provinces={
		4486 14593 
	}
	manpower=770000
	buildings_max_level_factor=1.000
	state_category=state_01
}
