
state={
	id=188
	name="STATE_188"

	history={
		owner = SYR
		victory_points = {
			14469 5 
		}
		victory_points = {
			14468 3 
		}
		victory_points = {
			14600 2 
		}
		victory_points = {
			13344 1 
		}
		buildings = {
			infrastructure = 2
			industrial_complex = 1

		}
		add_core_of = ISI
		add_core_of = NUS
		add_core_of = SYR
		add_core_of = FSA

	}

	provinces={
		1056 13344 14469 14598 14599 14600 
	}
	manpower=1120000
	buildings_max_level_factor=1.000
	state_category=state_02
}
