
state={
	id=196
	name="STATE_196"

	history={
		owner = YEM
		victory_points = {
			14529 1 
		}
		buildings = {
			infrastructure = 0

		}
		add_core_of = YEM
		add_core_of = AQY
		add_core_of = HOU

	}

	provinces={
		4976 14513 14514 14519 14524 14529 14530 14532 
	}
	manpower=1091665
	buildings_max_level_factor=1.000
	state_category=state_02
}
