
state={
	id=233
	name="STATE_233"

	history={
		owner = ETH
		victory_points = {
			5010 10 
		}
		victory_points = {
			13579 1 
		}
		victory_points = {
			12856 1 
		}
		buildings = {
			infrastructure = 2
			industrial_complex = 2
			arms_factory = 1
			air_base = 6

		}
		add_core_of = ETH

	}

	provinces={
		2009 5010 12856 13579 13580 13583 
	}
	manpower=25702748
	buildings_max_level_factor=1.000
	state_category=state_12
}
