
state={
	id=235
	name="STATE_235"

	history={
		owner = ETH
		victory_points = {
			10734 5 
		}
		victory_points = {
			8019 1 
		}
		victory_points = {
			13578 1 
		}
		buildings = {
			infrastructure = 0
			industrial_complex = 1

		}
		add_core_of = ETH

	}

	provinces={
		7912 8019 10734 13575 13578 
	}
	manpower=21632611
	buildings_max_level_factor=1.000
	state_category=state_11
}
