
state={
	id=241
	name="STATE_241"

	history={
		owner = KEN
		victory_points = {
			5210 5 
		}
		victory_points = {
			13672 1 
		}
		buildings = {
			infrastructure = 2
			air_base = 2
			5210 = {
				naval_base = 4

			}

		}
		add_core_of = KEN

	}

	provinces={
		5210 13671 13672 13674 
	}
	manpower=5511198
	buildings_max_level_factor=1.000
	state_category=state_06
}
