
state={
	id=248
	name="STATE_248"

	history={
		owner = UGA
		victory_points = {
			3854 5 
		}
		victory_points = {
			7088 1 
		}
		victory_points = {
			13665 1 
		}
		buildings = {
			infrastructure = 1
			industrial_complex = 1

		}
		add_core_of = UGA

	}

	provinces={
		3854 7088 13665 
	}
	manpower=10524444
	buildings_max_level_factor=1.000
	state_category=state_08
}
