
state={
	id=275
	name="STATE_275"

	history={
		owner = SAF
		victory_points = {
			10400 10 
		}
		victory_points = {
			13826 11 
		}
		buildings = {
			infrastructure = 5
			arms_factory = 3
			industrial_complex = 3
			air_base = 8

		}
		add_core_of = SAF

	}

	provinces={
		10400 13826 
	}
	manpower=14072263
	buildings_max_level_factor=1.000
	state_category=state_10
}
