
state={
	id=276
	name="STATE_276"

	history={
		owner = SAF
		victory_points = {
			13827 5 
		}
		victory_points = {
			13822 1 
		}
		victory_points = {
			2213 1 
		}
		victory_points = {
			13820 3 
		}
		buildings = {
			infrastructure = 4
			industrial_complex = 1

		}
		add_core_of = SAF

	}

	provinces={
		2213 10668 13820 13822 13824 13827 
	}
	manpower=3509953
	buildings_max_level_factor=1.000
	state_category=state_04
}
