
state={
	id=280
	name="STATE_280"

	history={
		owner = SAF
		victory_points = {
			1833 5 
		}
		victory_points = {
			4696 5 
		}
		victory_points = {
			7576 1 
		}
		buildings = {
			infrastructure = 2
			industrial_complex = 1
			air_base = 2
			4696 = {
				naval_base = 4

			}

		}
		add_core_of = SAF

	}

	provinces={
		1833 4584 4696 4822 7576 13792 13793 13799 13801 
	}
	manpower=7062053
	buildings_max_level_factor=1.000
	state_category=state_07
}
