
state={
	id=311
	name="STATE_311"

	history={
		owner = DRC
		victory_points = {
			1950 10 
		}
		victory_points = {
			14481 1 
		}
		buildings = {
			infrastructure = 0
			air_base = 2

		}
		add_core_of = DRC

	}

	provinces={
		1950 8048 10951 12847 13642 13645 13648 13650 14480 14481 14482 
	}
	manpower=7292161
	buildings_max_level_factor=1.000
	state_category=state_07
}
