
state={
	id=349
	name="STATE_349"

	history={
		owner = BFA
		victory_points = {
			12851 1 
		}
		buildings = {
			infrastructure = 1
			arms_factory = 1

		}
		add_core_of = BFA

	}

	provinces={
		7950 12851 13497 
	}
	manpower=6288783
	buildings_max_level_factor=1.000
	state_category=state_06
}
