
state={
	id=364
	name="STATE_364"

	history={
		owner = SEN
		victory_points = {
			4948 10 
		}
		victory_points = {
			7972 4 
		}
		buildings = {
			infrastructure = 2
			arms_factory = 1
			industrial_complex = 2
			air_base = 4
			4948 = {
				naval_base = 4

			}

		}
		add_core_of = SEN

	}

	provinces={
		4948 7972 13444 
	}
	manpower=11667198
	buildings_max_level_factor=1.000
	state_category=state_09
}
