
state={
	id=373
	name="STATE_373"

	history={
		owner = MOR
		victory_points = {
			8038 5 
		}
		victory_points = {
			10875 1 
		}
		victory_points = {
			5012 1 
		}
		buildings = {
			infrastructure = 3
			8038 = {
				naval_base = 2

			}

		}
		add_core_of = SHA

	}

	provinces={
		4920 5012 8038 8111 10875 13427 
	}
	manpower=546169
	buildings_max_level_factor=1.000
	state_category=state_01
}
