
state={
	id=430
	name="STATE_430"

	history={
		owner = RAJ
		victory_points = {
			12868 5 
		}
		victory_points = {
			2032 1 
		}
		victory_points = {
			14257 1 
		}
		buildings = {
			infrastructure = 4
			industrial_complex = 2
			arms_factory = 2

		}
		add_core_of = RAJ

	}

	provinces={
		2032 12868 14253 14257 
	}
	manpower=28902512
	buildings_max_level_factor=1.000
	state_category=state_13
}
