
state={
	id=482
	name="STATE_482"

	history={
		owner = SRI
		victory_points = {
			10287 1 
		}
		buildings = {
			infrastructure = 2
			industrial_complex = 2
			arms_factory = 1

		}
		add_core_of = SRI

	}

	provinces={
		1213 10287 14186 
	}
	manpower=6933355
	buildings_max_level_factor=1.000
	state_category=state_07
}
