
state={
	id=495
	name="STATE_495"

	history={
		owner = SPR
		victory_points = { 13228 1 } #Ceuta
		
		buildings = {
			infrastructure = 5
			
			13228 = {
				naval_base = 1
			}

		}
		add_core_of = SPR
		add_core_of = MOR

	}

	provinces={
		 13228
	}
	manpower=78674
	buildings_max_level_factor=1.000
	state_category=state_00
}
