
state={
	id=499
	name="STATE_499"

	history={
		owner = BRM
		victory_points = {
			11966 1 
		}
		victory_points = {
			7190 1 
		}
		buildings = {
			infrastructure = 0
			air_base = 1

		}

	}

	provinces={
		4019 4454 7190 7534 10033 11966 
	}
	manpower=1522515
	buildings_max_level_factor=1.000
	state_category=state_03
}
