
state={
	id=529
	name="STATE_529"

	history={
		owner = MAY
		victory_points = {
			14410 5 
		}
		victory_points = {
			7399 5 
		}
		victory_points = {
			12199 3 
		}
		buildings = {
			infrastructure = 4
			industrial_complex = 3
			arms_factory = 1
			14410 = {
				naval_base = 2

			}

		}
		add_core_of = MAY

	}

	provinces={
		1348 1392 4355 4367 4384 7329 7399 10227 12199 12255 12271 14403 14406 14407 14408 14410 
	}
	manpower=4542235
	buildings_max_level_factor=1.000
	state_category=state_05
}
