
state={
	id=564
	name="STATE_564"

	history={
		owner = CHI
		victory_points = {
			1171 5 
		}
		victory_points = {
			1083 5 
		}
		victory_points = {
			1099 5 
		}
		victory_points = {
			1125 1 
		}
		victory_points = {
			4105 1 
		}
		victory_points = {
			11937 1 
		}
		victory_points = {
			11994 1 
		}
		victory_points = {
			12061 1 
		}
		victory_points = {
			7222 5 
		}
		victory_points = {
			12036 5 
		}
		victory_points = {
			11916 5 
		}
		victory_points = {
			10064 1 
		}
		victory_points = {
			1146 1 
		}
		victory_points = {
			10017 1 
		}
		victory_points = {
			10008 1 
		}
		victory_points = {
			7085 5 
		}
		victory_points = {
			9937 5 
		}
		victory_points = {
			9995 3 
		}
		victory_points = {
			1161 1 
		}
		victory_points = {
			7126 1 
		}
		victory_points = {
			10434 1 
		}
		victory_points = {
			10079 1 
		}
		buildings = {
			infrastructure = 4
			industrial_complex = 4
			arms_factory = 2

		}
		add_core_of = CHI

	}

	provinces={
		1083 1099 1125 1161 1171 4079 4105 4158 4173 4203 7035 7094 7104 7126 7222 7637 9937 9995 10008 10017 10040 10044 10064 10079 11916 11937 11973 11994 12019 12036 12061 
	}
	manpower=62030001
	buildings_max_level_factor=1.000
	state_category=state_16
}
