
state={
	id=567
	name="STATE_567"

	history={
		owner = CHI
		victory_points = {
			4144 5 
		}
		victory_points = {
			1139 5 
		}
		victory_points = {
			11933 1 
		}
		victory_points = {
			7074 1 
		}
		victory_points = {
			4606 1 
		}
		victory_points = {
			9958 5 
		}
		victory_points = {
			11931 5 
		}
		victory_points = {
			10098 1 
		}
		victory_points = {
			7656 1 
		}
		victory_points = {
			7540 1 
		}
		victory_points = {
			4066 1 
		}
		victory_points = {
			1004 1 
		}
		victory_points = {
			6932 1 
		}
		victory_points = {
			10364 1 
		}
		victory_points = {
			4519 5 
		}
		victory_points = {
			12012 5 
		}
		victory_points = {
			7580 2 
		}
		victory_points = {
			12426 1 
		}
		victory_points = {
			7568 1 
		}
		buildings = {
			infrastructure = 4
			industrial_complex = 7
			arms_factory = 1
			air_base = 8

		}
		add_core_of = CHI

	}

	provinces={
		1004 1139 1603 4066 4114 4144 4519 4547 4606 6932 7074 7459 7508 7540 7568 9958 10098 10364 10434 10446 11931 11933 12012 12426 
	}
	manpower=94413567
	buildings_max_level_factor=1.000
	state_category=state_18
}
