
state={
	id=580
	name="STATE_580"

	history={
		owner = CHI
		victory_points = {
			1196 5 
		}
		victory_points = {
			1114 1 
		}
		victory_points = {
			4501 1 
		}
		victory_points = {
			1522 1 
		}
		victory_points = {
			1172 1 
		}
		buildings = {
			infrastructure = 3
			industrial_complex = 1

		}
		add_core_of = CHI

	}

	provinces={
		1114 1172 1196 1522 1653 4501 14300 14303 14304 
	}
	manpower=11742154
	buildings_max_level_factor=1.000
	state_category=state_09
}
