
state={
	id=705
	name="STATE_705"

	history={
		owner = SOO
		victory_points = {
			1530 2 
		}
		buildings = {
			infrastructure = 2
			air_base = 1

		}
		add_core_of = GEO
		add_core_of = SOO

	}

	provinces={
		1530 11609 
	}
	manpower=55199
	buildings_max_level_factor=1.000
	state_category=state_00
}
