
state={
	id=731
	name="STATE_731"

	history={
		owner = PAP
		victory_points = {
			12428 2 
		}
		victory_points = {
			5135 1 
		}
		victory_points = {
			11004 1 
		}
		victory_points = {
			10954 1 
		}
		buildings = {
			infrastructure = 1
            industrial_complex = 1

		}
		add_core_of = PAP

	}

	provinces={
		2129 5135 10954 11004 11018 12428 12931 14438 14439 14440 14441 14442 14443 14446 
	}
	manpower=3254874
	buildings_max_level_factor=1.000
	state_category=state_04
}
