
state={
	id=753
	name="STATE_753"

	history={
		owner = CAN
		victory_points = {
			7869 3 
		}
		victory_points = {
			10527 3 
		}
		victory_points = {
			2407 1 
		}
		buildings = {
			infrastructure = 1
			air_base = 1

		}
		add_core_of = CAN

	}

	provinces={
		3606 7696 7830 7869 7891 7901 10527 10703 13075 
	}
	manpower=88516
	buildings_max_level_factor=1.000
	state_category=state_00
}
