state= {
	id=822
	name="STATE_822"
	manpower = 60
	state_category = state_00

	history={
		owner = USA
		victory_points = { 13052 1 } #Midway
		
		buildings = {
			infrastructure = 4
			air_base = 1
			
			13052 = {
				naval_base = 1
			}

		}
		add_core_of = USA
	}

	provinces={
		  13052
		
		}
}
