state= {
	id=825
	name="STATE_825"
	manpower = 1
	state_category = state_00

	history={
		owner = USA
		victory_points = { 13051 1 } #Johnston Atoll
		
		buildings = {
			infrastructure = 1
			
			13051 = {
				naval_base = 1
			}

		}
		add_core_of = USA
	}

	provinces={
		  13051
		
		}
}
